<svg width="66" height="66" viewBox="0 0 66 66" fill="none" xmlns="http://www.w3.org/2000/svg">
<g filter="url(#filter0_d_30_5543)">
<path d="M27.195 61C27.0434 61 26.8917 60.9517 26.765 60.8517C26.5034 60.645 26.425 60.2834 26.5767 59.9884L32.3334 49.3334H23.87C23.58 49.3334 23.14 49.2817 22.9334 48.8384C22.7434 48.4334 22.8384 48.0484 23.0117 47.6667L29 32.6667C29.13 32.555 40.5034 33.3217 40.6667 33.3217C40.8167 33.3217 40.97 33.37 41.095 33.47C41.3567 33.6767 41.435 34.0384 41.2817 34.335L34.92 44.335H43.3067C43.5967 44.335 43.855 44.515 43.9584 44.7867C44.0584 45.0584 43.98 45.365 43.76 45.555L27.65 60.8317C27.5184 60.9434 27.3567 61 27.195 61Z" fill="#F4900C"/>
</g>
<g filter="url(#filter1_dd_30_5543)">
<path d="M50.6667 7.66667C49.2917 7.66667 47.9667 7.875 46.7183 8.26167C45.24 4.03667 41.23 1 36.5 1C31.4267 1 27.18 4.49333 26.0017 9.20167C24.745 8.25167 23.1983 7.66667 21.5 7.66667C17.3583 7.66667 14 11.025 14 15.1667C14 16.1733 14.205 17.13 14.565 18.0067C13.85 17.8083 13.1117 17.6667 12.3333 17.6667C7.73 17.6667 4 21.3967 4 26C4 30.6033 7.73 34.3333 12.3333 34.3333H50.6667C58.03 34.3333 64 28.365 64 21C64 13.6367 58.03 7.66667 50.6667 7.66667Z" fill="#E1E8ED"/>
</g>
<g filter="url(#filter2_d_30_5543)">
<path d="M22.3318 42.6017L22.1434 36.9L17.3601 39.7467C16.2968 40.3217 15.5901 41.4534 15.6334 42.745C15.6951 44.5817 17.2434 46.0367 19.0934 46C20.9418 45.9617 22.3934 44.4384 22.3318 42.6017ZM18.9984 55.935L18.8101 50.2334L14.0268 53.08C12.9634 53.655 12.2568 54.7867 12.3001 56.0784C12.3618 57.915 13.9101 59.37 15.7601 59.3334C17.6101 59.295 19.0601 57.7717 18.9984 55.935ZM10.7001 46.7017L10.5118 41L5.72843 43.8467C4.6651 44.4217 3.95843 45.5534 4.00177 46.845C4.06343 48.6834 5.61176 50.1384 7.46176 50.1C9.31176 50.0617 10.7618 48.5384 10.7001 46.7017ZM52.3668 42.6017L52.1784 36.9L47.3968 39.7467C46.3318 40.3217 45.6268 41.4534 45.6701 42.745C45.7318 44.5834 47.2801 46.0384 49.1301 46C50.9784 45.9617 52.4284 44.4384 52.3668 42.6017ZM49.0334 57.6017L48.8451 51.9L44.0634 54.7467C42.9984 55.3217 42.2934 56.4534 42.3368 57.745C42.3984 59.5817 43.9468 61.0384 45.7968 61C47.6451 60.9617 49.0951 59.4384 49.0334 57.6017ZM59.0334 50.935L58.8451 45.2334L54.0634 48.08C52.9984 48.655 52.2934 49.7867 52.3368 51.0784C52.3984 52.9167 53.9468 54.3717 55.7968 54.3334C57.6451 54.295 59.0951 52.7717 59.0334 50.935Z" fill="#5DADEC"/>
</g>
<defs>
<filter id="filter0_d_30_5543" x="18.8289" y="29.6556" width="29.1724" height="36.3445" filterUnits="userSpaceOnUse" color-interpolation-filters="sRGB">
<feFlood flood-opacity="0" result="BackgroundImageFix"/>
<feColorMatrix in="SourceAlpha" type="matrix" values="0 0 0 0 0 0 0 0 0 0 0 0 0 0 0 0 0 0 127 0" result="hardAlpha"/>
<feOffset dy="1"/>
<feGaussianBlur stdDeviation="2"/>
<feComposite in2="hardAlpha" operator="out"/>
<feColorMatrix type="matrix" values="0 0 0 0 0 0 0 0 0 0 0 0 0 0 0 0 0 0 0.25 0"/>
<feBlend mode="normal" in2="BackgroundImageFix" result="effect1_dropShadow_30_5543"/>
<feBlend mode="normal" in="SourceGraphic" in2="effect1_dropShadow_30_5543" result="shape"/>
</filter>
<filter id="filter1_dd_30_5543" x="2" y="0" width="64" height="37.3333" filterUnits="userSpaceOnUse" color-interpolation-filters="sRGB">
<feFlood flood-opacity="0" result="BackgroundImageFix"/>
<feColorMatrix in="SourceAlpha" type="matrix" values="0 0 0 0 0 0 0 0 0 0 0 0 0 0 0 0 0 0 127 0" result="hardAlpha"/>
<feOffset dy="1"/>
<feGaussianBlur stdDeviation="1"/>
<feComposite in2="hardAlpha" operator="out"/>
<feColorMatrix type="matrix" values="0 0 0 0 0 0 0 0 0 0 0 0 0 0 0 0 0 0 0.3 0"/>
<feBlend mode="normal" in2="BackgroundImageFix" result="effect1_dropShadow_30_5543"/>
<feColorMatrix in="SourceAlpha" type="matrix" values="0 0 0 0 0 0 0 0 0 0 0 0 0 0 0 0 0 0 127 0" result="hardAlpha"/>
<feOffset dy="1"/>
<feGaussianBlur stdDeviation="0.5"/>
<feComposite in2="hardAlpha" operator="out"/>
<feColorMatrix type="matrix" values="0 0 0 0 0 0 0 0 0 0 0 0 0 0 0 0 0 0 0.15 0"/>
<feBlend mode="normal" in2="effect1_dropShadow_30_5543" result="effect2_dropShadow_30_5543"/>
<feBlend mode="normal" in="SourceGraphic" in2="effect2_dropShadow_30_5543" result="shape"/>
</filter>
<filter id="filter2_d_30_5543" x="-0.00012207" y="33.9" width="63.0355" height="32.1007" filterUnits="userSpaceOnUse" color-interpolation-filters="sRGB">
<feFlood flood-opacity="0" result="BackgroundImageFix"/>
<feColorMatrix in="SourceAlpha" type="matrix" values="0 0 0 0 0 0 0 0 0 0 0 0 0 0 0 0 0 0 127 0" result="hardAlpha"/>
<feOffset dy="1"/>
<feGaussianBlur stdDeviation="2"/>
<feComposite in2="hardAlpha" operator="out"/>
<feColorMatrix type="matrix" values="0 0 0 0 0 0 0 0 0 0 0 0 0 0 0 0 0 0 0.25 0"/>
<feBlend mode="normal" in2="BackgroundImageFix" result="effect1_dropShadow_30_5543"/>
<feBlend mode="normal" in="SourceGraphic" in2="effect1_dropShadow_30_5543" result="shape"/>
</filter>
</defs>
</svg>
