<svg width="66" height="66" viewBox="0 0 66 66" fill="none" xmlns="http://www.w3.org/2000/svg">
<g filter="url(#filter0_dd_30_5556)">
<path d="M50.6667 7.66667C49.2917 7.66667 47.9667 7.875 46.7183 8.26167C45.24 4.03667 41.23 1 36.5 1C31.4267 1 27.18 4.49333 26.0017 9.20167C24.745 8.25167 23.1983 7.66667 21.5 7.66667C17.3583 7.66667 14 11.025 14 15.1667C14 16.1733 14.205 17.13 14.565 18.0067C13.85 17.8083 13.1117 17.6667 12.3333 17.6667C7.73 17.6667 4 21.3967 4 26C4 30.6033 7.73 34.3333 12.3333 34.3333H50.6667C58.03 34.3333 64 28.365 64 21C64 13.6367 58.03 7.66667 50.6667 7.66667Z" fill="#E1E8ED"/>
</g>
<g filter="url(#filter1_d_30_5556)">
<path d="M14.8834 45.5833C14.6534 45.185 14.145 45.05 13.745 45.2783L10.6667 47.0567V43.5C10.6667 43.04 10.2934 42.6667 9.83336 42.6667C9.37336 42.6667 9.00002 43.04 9.00002 43.5V47.0583L5.91836 45.28C5.52003 45.05 5.01003 45.185 4.78003 45.585C4.54836 45.985 4.68503 46.4933 5.08503 46.725L8.16503 48.5L5.08503 50.2783C4.68669 50.5083 4.55169 51.0167 4.78003 51.4167C5.01003 51.8167 5.51836 51.9517 5.91836 51.7233L9.00002 49.9433V53.5C9.00002 53.96 9.37336 54.3333 9.83336 54.3333C10.2934 54.3333 10.6667 53.96 10.6667 53.5V49.945L13.7467 51.7233C14.145 51.9533 14.655 51.8183 14.885 51.4167C15.115 51.0183 14.98 50.5083 14.58 50.2783L11.5 48.5L14.58 46.7217C14.9784 46.4917 15.115 45.9833 14.8834 45.5833ZM31.55 52.25C31.32 51.8517 30.8117 51.7167 30.4117 51.945L27.3334 53.7233V50.1667C27.3334 49.7067 26.96 49.3333 26.5 49.3333C26.04 49.3333 25.6667 49.7067 25.6667 50.1667V53.725L22.585 51.9467C22.1867 51.7167 21.6767 51.8517 21.4467 52.2517C21.215 52.6517 21.3517 53.16 21.7517 53.3917L24.8317 55.17L21.7517 56.9483C21.3534 57.1783 21.2184 57.6867 21.4467 58.0867C21.6767 58.4867 22.185 58.6217 22.585 58.3933L25.6667 56.61V60.1667C25.6667 60.6267 26.04 61 26.5 61C26.96 61 27.3334 60.6267 27.3334 60.1667V56.6117L30.4134 58.39C30.8117 58.62 31.3217 58.485 31.5517 58.0833C31.7817 57.685 31.6467 57.175 31.2467 56.945L28.1667 55.1667L31.2467 53.3883C31.645 53.1583 31.7817 52.65 31.55 52.25ZM22.3334 46.8333C22.3334 47.2933 22.7067 47.6667 23.1667 47.6667C23.6267 47.6667 24 47.2933 24 46.8333V43.2783L27.08 45.0567C27.4784 45.2867 27.9884 45.1517 28.2184 44.75C28.4484 44.3517 28.3134 43.8417 27.9134 43.6117L24.8334 41.8333L27.9134 40.055C28.3117 39.8233 28.4484 39.3167 28.2184 38.915C27.9884 38.5167 27.48 38.3817 27.08 38.61L24 40.39V36.8333C24 36.3733 23.6267 36 23.1667 36C22.7067 36 22.3334 36.3733 22.3334 36.8333V40.3917L19.2517 38.6133C18.8534 38.3833 18.3434 38.5183 18.1134 38.9183C17.8817 39.3183 18.0184 39.8267 18.4184 40.0583L21.4984 41.8367L18.4184 43.615C18.02 43.845 17.885 44.3533 18.1134 44.7533C18.3434 45.1533 18.8517 45.2883 19.2517 45.06L22.3334 43.2767V46.8333ZM43.7467 46.7233C44.145 46.9533 44.655 46.8183 44.885 46.4167C45.115 46.0183 44.98 45.5083 44.58 45.2783L41.5 43.5L44.58 41.7217C44.9784 41.49 45.115 40.9833 44.885 40.5817C44.655 40.1833 44.1467 40.0483 43.7467 40.2767L40.6667 42.0567V38.5C40.6667 38.04 40.2934 37.6667 39.8334 37.6667C39.3734 37.6667 39 38.04 39 38.5V42.0583L35.9184 40.28C35.52 40.05 35.01 40.185 34.78 40.585C34.5484 40.985 34.685 41.4933 35.085 41.725L38.165 43.5033L35.085 45.2817C34.6867 45.5117 34.5517 46.02 34.78 46.42C35.01 46.82 35.5184 46.955 35.9184 46.7267L39 44.9433V48.5C39 48.96 39.3734 49.3333 39.8334 49.3333C40.2934 49.3333 40.6667 48.96 40.6667 48.5V44.945L43.7467 46.7233ZM61.2467 43.6117L58.1667 41.8333L61.2467 40.055C61.645 39.8233 61.7817 39.3167 61.5517 38.915C61.3217 38.5167 60.8134 38.3817 60.4134 38.61L57.3334 40.39V36.8333C57.3334 36.3733 56.96 36 56.5 36C56.04 36 55.6667 36.3733 55.6667 36.8333V40.3917L52.585 38.6133C52.1867 38.3833 51.6767 38.5183 51.4467 38.9183C51.215 39.3183 51.3517 39.8267 51.7517 40.0583L54.8317 41.8367L51.7517 43.615C51.3534 43.845 51.2184 44.3533 51.4467 44.7533C51.6767 45.1533 52.185 45.2883 52.585 45.06L55.6667 43.2767V46.8333C55.6667 47.2933 56.04 47.6667 56.5 47.6667C56.96 47.6667 57.3334 47.2933 57.3334 46.8333V43.2783L60.4134 45.0567C60.8117 45.2867 61.3217 45.1517 61.5517 44.75C61.78 44.3517 61.645 43.8417 61.2467 43.6117ZM53.2167 52.25C52.9867 51.8517 52.4784 51.7167 52.0784 51.945L49 53.7233V50.1667C49 49.7067 48.6267 49.3333 48.1667 49.3333C47.7067 49.3333 47.3334 49.7067 47.3334 50.1667V53.725L44.2517 51.9467C43.8534 51.7167 43.3434 51.8517 43.1134 52.2517C42.8817 52.6517 43.0184 53.16 43.4184 53.3917L46.4984 55.17L43.4184 56.9483C43.02 57.1783 42.885 57.6867 43.1134 58.0867C43.3434 58.4867 43.8517 58.6217 44.2517 58.3933L47.3334 56.61V60.1667C47.3334 60.6267 47.7067 61 48.1667 61C48.6267 61 49 60.6267 49 60.1667V56.6117L52.08 58.39C52.4784 58.62 52.9884 58.485 53.2184 58.0833C53.4484 57.685 53.3134 57.175 52.9134 56.945L49.8334 55.1667L52.9134 53.3883C53.3117 53.1583 53.4484 52.65 53.2167 52.25Z" fill="#5DADEC"/>
</g>
<defs>
<filter id="filter0_dd_30_5556" x="2" y="0" width="64" height="37.3333" filterUnits="userSpaceOnUse" color-interpolation-filters="sRGB">
<feFlood flood-opacity="0" result="BackgroundImageFix"/>
<feColorMatrix in="SourceAlpha" type="matrix" values="0 0 0 0 0 0 0 0 0 0 0 0 0 0 0 0 0 0 127 0" result="hardAlpha"/>
<feOffset dy="1"/>
<feGaussianBlur stdDeviation="1"/>
<feComposite in2="hardAlpha" operator="out"/>
<feColorMatrix type="matrix" values="0 0 0 0 0 0 0 0 0 0 0 0 0 0 0 0 0 0 0.3 0"/>
<feBlend mode="normal" in2="BackgroundImageFix" result="effect1_dropShadow_30_5556"/>
<feColorMatrix in="SourceAlpha" type="matrix" values="0 0 0 0 0 0 0 0 0 0 0 0 0 0 0 0 0 0 127 0" result="hardAlpha"/>
<feOffset dy="1"/>
<feGaussianBlur stdDeviation="0.5"/>
<feComposite in2="hardAlpha" operator="out"/>
<feColorMatrix type="matrix" values="0 0 0 0 0 0 0 0 0 0 0 0 0 0 0 0 0 0 0.15 0"/>
<feBlend mode="normal" in2="effect1_dropShadow_30_5556" result="effect2_dropShadow_30_5556"/>
<feBlend mode="normal" in="SourceGraphic" in2="effect2_dropShadow_30_5556" result="shape"/>
</filter>
<filter id="filter1_d_30_5556" x="0.667236" y="33" width="64.9962" height="33" filterUnits="userSpaceOnUse" color-interpolation-filters="sRGB">
<feFlood flood-opacity="0" result="BackgroundImageFix"/>
<feColorMatrix in="SourceAlpha" type="matrix" values="0 0 0 0 0 0 0 0 0 0 0 0 0 0 0 0 0 0 127 0" result="hardAlpha"/>
<feOffset dy="1"/>
<feGaussianBlur stdDeviation="2"/>
<feComposite in2="hardAlpha" operator="out"/>
<feColorMatrix type="matrix" values="0 0 0 0 0 0 0 0 0 0 0 0 0 0 0 0 0 0 0.25 0"/>
<feBlend mode="normal" in2="BackgroundImageFix" result="effect1_dropShadow_30_5556"/>
<feBlend mode="normal" in="SourceGraphic" in2="effect1_dropShadow_30_5556" result="shape"/>
</filter>
</defs>
</svg>
